sw/bootloader/storm_bootloader2.vcd
$comment
Copyright (C) 1991-2013 Altera Corporation
Your use of Altera Corporation's design tools, logic functions 
and other software and tools, and its AMPP partner logic 
functions, and any output files from any of the foregoing 
(including device programming or simulation files), and any 
associated documentation or information are expressly subject 
to the terms and conditions of the Altera Program License 
Subscription Agreement, Altera MegaCore Function License 
Agreement, or other applicable license agreement, including, 
without limitation, that your use is for the sole purpose of 
programming logic devices manufactured by Altera and sold by 
Altera or its authorized distributors.  Please refer to the 
applicable agreement for further details.
$end

$date 
  10/03/2015 00:35:38 
$end
$version 
 QUARTUS_VCD_EXPORT 1.0 
$end
$timescale
  1 ps
$end
$scope module STORM_TOP_INST $end
$scope module BUS_UNIT_INST $end
$var reg 1 ! WB_ADR_O[11] $end
$var reg 1 " WB_ADR_O[10] $end
$var reg 1 # WB_ADR_O[9] $end
$var reg 1 $ WB_ADR_O[8] $end
$var reg 1 % WB_ADR_O[7] $end
$var reg 1 & WB_ADR_O[6] $end
$var reg 1 ' WB_ADR_O[5] $end
$var reg 1 ( WB_ADR_O[4] $end
$var reg 1 ) WB_ADR_O[3] $end
$var reg 1 * WB_ADR_O[2] $end
$var reg 1 + WB_ADR_O[1] $end
$var reg 1 , WB_ADR_O[0] $end
$var reg 1 - WB_DATA_O[31] $end
$var reg 1 . WB_DATA_O[30] $end
$var reg 1 / WB_DATA_O[29] $end
$var reg 1 0 WB_DATA_O[28] $end
$var reg 1 1 WB_DATA_O[27] $end
$var reg 1 2 WB_DATA_O[26] $end
$var reg 1 3 WB_DATA_O[25] $end
$var reg 1 4 WB_DATA_O[24] $end
$var reg 1 5 WB_DATA_O[23] $end
$var reg 1 6 WB_DATA_O[22] $end
$var reg 1 7 WB_DATA_O[21] $end
$var reg 1 8 WB_DATA_O[20] $end
$var reg 1 9 WB_DATA_O[19] $end
$var reg 1 : WB_DATA_O[18] $end
$var reg 1 ; WB_DATA_O[17] $end
$var reg 1 < WB_DATA_O[16] $end
$var reg 1 = WB_DATA_O[15] $end
$var reg 1 > WB_DATA_O[14] $end
$var reg 1 ? WB_DATA_O[13] $end
$var reg 1 @ WB_DATA_O[12] $end
$var reg 1 A WB_DATA_O[11] $end
$var reg 1 B WB_DATA_O[10] $end
$var reg 1 C WB_DATA_O[9] $end
$var reg 1 D WB_DATA_O[8] $end
$var reg 1 E WB_DATA_O[7] $end
$var reg 1 F WB_DATA_O[6] $end
$var reg 1 G WB_DATA_O[5] $end
$var reg 1 H WB_DATA_O[4] $end
$var reg 1 I WB_DATA_O[3] $end
$var reg 1 J WB_DATA_O[2] $end
$var reg 1 K WB_DATA_O[1] $end
$var reg 1 L WB_DATA_O[0] $end
$upscope $end
$upscope $end
$scope module SYSCON_CLK $end
$var reg 1 M c0 $end
$upscope $end
$var reg 1 N CORE_WB_DATA_I[31] $end
$var reg 1 O CORE_WB_DATA_I[30] $end
$var reg 1 P CORE_WB_DATA_I[29] $end
$var reg 1 Q CORE_WB_DATA_I[28] $end
$var reg 1 R CORE_WB_DATA_I[27] $end
$var reg 1 S CORE_WB_DATA_I[26] $end
$var reg 1 T CORE_WB_DATA_I[25] $end
$var reg 1 U CORE_WB_DATA_I[24] $end
$var reg 1 V CORE_WB_DATA_I[23] $end
$var reg 1 W CORE_WB_DATA_I[22] $end
$var reg 1 X CORE_WB_DATA_I[21] $end
$var reg 1 Y CORE_WB_DATA_I[20] $end
$var reg 1 Z CORE_WB_DATA_I[19] $end
$var reg 1 [ CORE_WB_DATA_I[18] $end
$var reg 1 \ CORE_WB_DATA_I[17] $end
$var reg 1 ] CORE_WB_DATA_I[16] $end
$var reg 1 ^ CORE_WB_DATA_I[15] $end
$var reg 1 _ CORE_WB_DATA_I[14] $end
$var reg 1 ` CORE_WB_DATA_I[13] $end
$var reg 1 a CORE_WB_DATA_I[12] $end
$var reg 1 b CORE_WB_DATA_I[11] $end
$var reg 1 c CORE_WB_DATA_I[10] $end
$var reg 1 d CORE_WB_DATA_I[9] $end
$var reg 1 e CORE_WB_DATA_I[8] $end
$var reg 1 f CORE_WB_DATA_I[7] $end
$var reg 1 g CORE_WB_DATA_I[6] $end
$var reg 1 h CORE_WB_DATA_I[5] $end
$var reg 1 i CORE_WB_DATA_I[4] $end
$var reg 1 j CORE_WB_DATA_I[3] $end
$var reg 1 k CORE_WB_DATA_I[2] $end
$var reg 1 l CORE_WB_DATA_I[1] $end
$var reg 1 m CORE_WB_DATA_I[0] $end
$var reg 1 n BOOT_ROM_STB_I $end
$var reg 1 o INT_MEM_STB_I $end
$enddefinitions $end
#0
$dumpvars
X!
X"
X#
X$
X%
X&
X'
X(
X)
X*
X+
X,
X-
X.
X/
X0
X1
X2
X3
X4
X5
X6
X7
X8
X9
X:
X;
X<
X=
X>
X?
X@
XA
XB
XC
XD
XE
XF
XG
XH
XI
XJ
XK
XL
0M
XN
XO
XP
XQ
XR
XS
XT
XU
XV
XW
XX
XY
XZ
X[
X\
X]
X^
X_
X`
Xa
Xb
Xc
Xd
Xe
Xf
Xg
Xh
Xi
Xj
Xk
Xl
Xm
Xn
Xo
$end
#10000
$comment Sample 0 (Start/Trigger) $end
0!
0"
0#
0$
0%
0&
0'
0(
0)
0*
0+
0,
1-
1.
0/
10
11
12
13
04
15
06
17
08
19
1:
0;
1<
1=
0>
1?
1@
1A
1B
1C
0D
1E
1F
1G
0H
1I
1J
1K
1L
1M
1N
1O
1P
0Q
0R
0S
1T
1U
0V
1W
0X
1Y
0Z
0[
1\
0]
0^
0_
0`
0a
0b
0c
0d
0e
0f
0g
0h
0i
0j
0k
0l
0m
1n
0o
#20000
0M
#30000
1*
1M
1R
0U
0W
0Y
0\
1k
1l
#40000
0M
#50000
1)
0*
1M
1c
1f
1h
1i
0l
1m
#60000
0M
#70000
1*
1M
0m
#80000
0M
#90000
1(
0)
0*
1M
0k
1l
1m
#100000
0M
#110000
1*
1M
0m
#120000
0M
#130000
1)
0*
1M
0l
1m
#140000
0M
#150000
1*
1M
0m
#160000
0M
#170000
1'
0(
0)
0*
1M
0i
1j
1k
1l
1m
#180000
0M
#190000
1*
1M
0R
1S
0T
1U
1V
1Y
1Z
1[
1\
1]
0c
1e
0f
1g
0k
0l
0m
#200000
0M
#210000
1)
0*
1M
0S
0V
0Y
1a
0e
0g
0h
0j
#220000
0M
#230000
1*
1M
1T
1V
1W
0Z
0[
0\
1g
1h
1i
1j
1k
1l
1m
#240000
0M
#250000
1(
0)
0*
1M
0W
1f
0h
#260000
0M
#270000
1*
1M
0T
0V
1X
1Z
1^
1_
1`
0f
0g
0i
0j
0k
0l
#280000
0M
#290000
1)
0*
1M
1V
0Z
0]
0`
0m
#300000
0M
#310000
1*
1M
1T
0^
0_
0a
#320000
0M
#330000
1&
0'
0(
0)
0*
1M
0T
1a
#340000
0M
#350000
1*
1M
1`
0a
#360000
0M
#370000
1)
0*
1M
1^
1a
#380000
0M
#390000
1*
1M
0^
1_
#400000
0M
#410000
1(
0)
0*
1M
1S
0X
1Y
1Z
1[
1\
1]
1^
0_
0a
1e
1g
#420000
0M
#430000
1*
1M
0S
1X
0Y
0Z
0[
0\
0]
1_
0e
0g
1j
1k
1l
1m
#440000
0M
#450000
1)
0*
1M
1a
0k
0m
#460000
0M
#470000
1*
1M
1T
0^
0_
0`
0a
0j
1m
#480000
0M
#490000
1'
0(
0)
0*
1M
0T
0V
1Y
1Z
1[
1\
1]
1^
1_
1`
1a
0l
0m
#500000
0M
#510000
1*
1M
1S
1V
0X
0`
1f
1i
1j
#520000
0M
#530000
1)
0*
1M
1R
0S
1T
0V
0Y
0Z
0[
0\
0]
0^
0_
0a
1e
1g
1h
0i
1l
#540000
0M
#550000
1*
1M
0R
1S
0T
1V
1Y
1Z
1[
1\
1]
1a
0f
0g
0h
1i
0l
#560000
0M
#570000
1(
0)
0*
1M
1`
0a
0e
1f
1h
#580000
0M
#590000
1*
1M
1a
#600000
0M
#610000
1)
0*
1M
0S
0V
1W
0Z
0[
0]
0`
0a
0f
0h
0i
0j
1l
1m
#620000
0M
#630000
1*
1M
0N
0O
0P
1R
1T
0U
0W
0Y
0\
0m
#640000
0M
#650000
1M
1N
1O
1P
0R
1S
0T
1V
1Y
1\
1_
1k
0l
#660000
0M
#670000
1M
#680000
0M
#690000
1M
0N
0O
0P
0S
0V
0Y
0\
0_
0k
0n
#700000
0M
#710000
1$
1%
0&
0'
0(
0)
0*
1M
1N
1O
1P
1S
1V
1Y
1\
1_
1k
1n
#720000
0M
#730000
1*
1M
0N
0O
0P
0S
0V
0Y
0\
0_
0k
#740000
0M
#750000
1)
0*
1M
#760000
0M
#770000
1*
1M
1[
1\
1]
1^
1_
#780000
0M
#790000
1(
0)
0*
1M
1T
1U
1V
1W
1X
1Y
0[
0\
0]
0^
0_
1a
#800000
0M
#810000
1*
1M
0T
0U
0V
0W
0X
0Y
1`
0a
1e
#820000
0M
#830000
1)
0*
1M
1]
0`
1b
0e
1i
1k
#840000
0M
#850000
1*
1M
0b
1e
0i
1j
0k
#860000
0M
#870000
1'
0(
0)
0*
1M
1i
0j
1k
#880000
0M
#890000
1*
1M
1j
1l
1m
#900000
0M
#910000
1)
0*
1M
1N
1O
1P
1R
1U
1X
1Z
1[
1_
1c
1f
1g
1h
0j
0k
0l
0m
#920000
0M
#930000
1*
1M
0R
1V
0Z
0[
0]
0c
0e
0f
0g
0h
0i
1l
#940000
0M
#950000
1(
0)
0*
1M
1T
0_
1`
0l
#960000
0M
#970000
1*
1M
1S
0T
0X
1[
#980000
0M
#990000
1)
0*
1M
0S
1X
0[
1_
1m
#1000000
0M
#1010000
1*
1M
1^
0_
1l
#1020000
0M
#1030000
1&
0'
0(
0)
0*
1M
0U
0X
0^
1_
0`
1a
0l
#1040000
0M
#1050000
1*
1M
1U
1X
1`
1l
0m
#1060000
0M
#1070000
1)
0*
1M
1^
0_
0`
0a
0l
1m
#1080000
0M
#1090000
1*
1M
1S
1W
0X
1Y
1[
1]
0^
1a
0m
#1100000
0M
#1110000
1(
0)
0*
1M
0W
1Z
1\
0a
1f
1g
1j
1k
#1120000
0M
#1130000
1*
1M
1R
0S
1T
0V
0Y
0Z
0[
0\
0]
1c
0f
0g
1h
0j
1l
1m
#1140000
0M
#1150000
1)
0*
1M
0R
1S
0T
1V
1W
1Y
1[
1]
1`
0c
0h
0k
0l
0m
#1160000
0M
#1170000
1*
1M
0S
1T
0U
0V
0Y
0[
1\
0]
1a
1h
1i
#1180000
0M
#1190000
1'
0(
0)
0*
1M
1U
1Y
1]
0`
0a
0h
0i
1j
1m
#1200000
0M
#1210000
1*
1M
0U
0Y
0]
1a
1g
0j
#1220000
0M
#1230000
1)
0*
1M
1U
1V
0W
1X
0\
0a
0g
0m
#1240000
0M
#1250000
1*
0-
0.
00
01
02
03
05
07
09
0:
0<
0=
0?
0@
0A
0B
0C
0E
0F
0G
0I
0J
0K
0L
1M
0O
0P
1R
0U
0V
0X
1k
1l
#1260000
0M
#1270000
1(
0)
0*
1M
1O
1P
0R
1S
0T
1U
1V
1Y
1[
1`
1a
0k
0l
#1280000
0M
#1290000
1*
1K
1M
0S
1X
0Y
0[
1d
1l
1m
#1300000
0M
#1310000
1)
0*
1?
1E
1H
1I
0K
1M
1S
0X
1[
0d
0l
0m
#1320000
0M
#1330000
1*
0?
0E
0H
0I
1M
1W
1Y
1]
0a
#1340000
0M
#1350000
1K
1M
0S
0U
0W
0Y
0[
1\
1a
1l
#1360000
0M
#1370000
0K
1M
#1380000
0M
#1390000
1L
1M
0N
0O
0P
0V
0\
0]
0`
0a
0l
0n
#1400000
0M
#1410000
1!
0$
0%
0&
0'
0(
0)
0*
0L
1M
1N
1O
1P
1V
1\
1]
1`
1a
1l
1n
#1420000
0M
#1430000
1*
1M
0N
0O
0P
0V
0\
0a
1f
1h
1j
0l
#1440000
0M
#1450000
1)
0*
1M
0f
0h
0j
1k
#1460000
0M
#1470000
1*
1M
1h
0k
#1480000
0M
#1490000
1(
0)
0*
1M
0`
1a
1b
1c
1d
1e
1f
1g
1i
1j
#1500000
0M
#1510000
1*
1M
1`
0a
0b
0c
0d
0e
0g
0h
1k
#1520000
0M
#1530000
1)
0*
1M
1N
1O
1P
1R
1U
1X
1Z
1[
1_
0`
1e
1g
1h
0j
0k
#1540000
0M
#1550000
1*
1M
0R
1T
1V
0Z
0[
0]
0_
1a
0e
0f
0g
0h
0i
1j
1k
#1560000
0M
#1570000
1'
0(
0)
0*
1M
0U
0V
1W
0X
1Z
1[
1]
1^
1_
1h
0k
#1580000
0M
#1590000
1*
1M
1S
0T
1U
1V
0W
1Y
1\
0^
0_
1`
0a
1e
1g
1i
0j
#1600000
0M
#1610000
1)
0*
1M
0`
#1620000
0M
#1630000
1*
1M
1R
0S
1T
0V
0Y
0Z
0[
0\
0]
1d
0e
1f
0g
0h
1m
#1640000
0M
#1650000
1(
0)
0*
1M
1V
1W
1X
1Y
1Z
1[
1\
1]
1^
1_
1`
1a
1b
1c
1h
1j
1l
0m
#1660000
0M
#1670000
1*
1M
0R
1S
0T
0W
0X
0^
0_
0`
0a
0b
0c
0d
1e
0f
1g
0i
0l
#1680000
0M
#1690000
1)
0*
1M
1R
0S
1T
0V
0Y
0Z
0[
0\
0]
1d
0e
1f
0g
0h
1k
1l
#1700000
0M
#1710000
1*
1M
0R
1V
1X
1_
1`
0d
0f
0j
0k
0l
#1720000
0M
#1730000
1&
0'
0(
0)
0*
1M
0T
1a
1k
1l
#1740000
0M
#1750000
1*
1M
1^
0_
0`
0a
#1760000
0M
#1770000
1)
0*
1M
1R
1T
0U
0V
0X
0^
0k
0l
1m
#1780000
0M
#1790000
1*
1M
0R
0T
1U
1V
1X
1_
1`
1j
0m
#1800000
0M
#1810000
1(
0)
0*
1M
1T
1a
0j
#1820000
0M
#1830000
1*
1M
0_
0`
0a
1b
1c
1d
1e
1f
1g
1h
1i
1j
1l
#1840000
0M
#1850000
1)
0*
1M
1R
0V
0X
0b
0c
0e
0g
0j
0l
#1860000
0M
#1870000
1*
1M
0R
0U
1W
1Y
1_
0d
0f
0h
0i
#1880000
0M
#1890000
1'
0(
0)
0*
1M
0O
1Q
1R
1V
1X
1Z
1[
1\
1]
1^
1`
1a
1b
1c
1d
1e
1f
1g
1h
1i
1j
1l
1m
#1900000
0M
#1910000
1*
1M
1O
0Q
0R
1U
0V
0X
0Z
0\
0]
0^
0_
0`
0a
0b
0c
0d
0e
0f
0g
0h
#1920000
0M
#1930000
1)
0*
1M
0N
0O
0P
1R
0U
0W
0Y
0[
1k
0l
0m
#1940000
0M
#1950000
1*
1M
1N
1O
1P
0R
1U
1W
1Y
1[
1\
1]
0i
0j
0k
1m
#1960000
0M
#1970000
1(
0)
0*
1M
0N
0O
0P
0\
0]
1g
1i
1j
1l
#1980000
0M
#1990000
1*
1M
1Q
1V
0W
1X
0Y
0[
1_
1a
0g
0i
0j
0l
0m
#2000000
0M
#2010000
1)
0*
1M
0Q
1m
#2020000
0M
#2030000
1*
1M
1`
1l
0m
#2040000
0M
#2050000
1M
1R
0U
0V
0X
0_
0`
0a
1i
1j
1k
0l
1m
#2060000
0M
#2070000
1M
#2080000
0M
#2090000
1M
0R
0T
0i
0j
0k
0m
0n
#2100000
0M
#2110000
1$
1%
0&
0'
0(
0)
0*
1-
1.
1/
11
13
1M
1R
1T
1i
1j
1k
1m
1n
#2120000
0M
#2130000
1*
1M
1N
1O
1Q
0R
1U
1V
1X
1`
1a
0i
0j
0k
0m
#2140000
0M
#2150000
1)
0*
1M
1P
0Q
0V
1W
0X
1Y
1\
1]
0`
0a
#2160000
0M
#2170000
1*
1M
0N
0O
0P
1Q
0U
0Y
1[
0]
1_
1`
1m
#2180000
0M
#2190000
1(
0)
0*
1M
0T
1U
1V
0W
1X
0[
0\
1a
1k
#2200000
0M
#2210000
1*
14
1C
1D
1E
1F
1H
1I
1K
1M
1R
1T
0U
1W
1Y
1Z
1[
1\
1]
1^
1b
1c
1d
1e
1f
1g
1i
1j
0k
0m
#2220000
0M
#2230000
1)
0*
01
04
16
18
1:
1>
0C
0D
0E
0F
0H
0I
0K
1L
1M
1N
1O
1P
0Q
0j
1l
#2240000
0M
#2250000
1*
12
03
14
15
06
19
1;
1<
0>
1J
0L
1M
0N
0O
0P
0R
0T
0V
0W
0X
0Y
0Z
0[
0\
0^
0_
0a
0b
0c
0d
0e
1h
0i
1j
1k
0l
#2260000
0M
#2270000
1'
0(
0)
0*
0-
0.
11
02
13
04
16
17
1=
1>
1?
1@
1A
1B
1C
1D
1E
1F
1G
1H
1I
0J
1K
1L
1M
0g
1i
0k
#2280000
0M
#2290000
1*
1-
1.
03
06
0;
0>
0?
0@
0A
0B
0C
0D
0E
0F
0G
0I
0K
0L
1M
1g
#2300000
0M
#2310000
1)
0*
0-
0.
0/
01
05
07
08
09
0:
0=
1@
1A
1B
1C
1E
1G
0H
1M
0f
0g
0h
0i
0j
1k
#2320000
0M
#2330000
1*
1-
1.
1/
12
14
17
19
1:
1=
1>
1?
0@
0A
0B
0C
0E
0G
1J
1M
1e
#2340000
0M
#2350000
1(
0)
0*
15
07
18
1;
0=
0>
0?
1E
1F
1I
1M
1N
1O
1P
1R
1U
1X
1Z
1[
1_
0`
0e
1i
0k
#2360000
0M
#2370000
1*
11
02
13
05
08
09
0:
0;
0<
1C
1D
1H
0I
0J
1K
1M
0R
1T
1V
0Z
0[
0]
1^
0i
#2380000
0M
#2390000
1)
0*
01
12
03
15
18
19
1:
1;
1<
0C
0D
0H
1I
0K
1M
0T
0^
#2400000
0M
#2410000
1*
11
02
13
05
08
09
0:
0;
0<
1C
1D
1H
0I
1M
1^
1`
1j
1k
#2420000
0M
#2430000
1&
0'
0(
0)
0*
01
15
17
0C
0D
0E
0F
1I
1J
1L
1M
0^
0_
0`
0j
0k
1m
#2440000
0M
#2450000
1*
11
16
18
19
1:
1;
1<
1=
1>
1?
1@
1A
1B
1C
1D
1E
1F
1G
0H
1K
1M
1R
1T
0U
0V
0X
1j
1l
0m
#2460000
0M
#2470000
1)
0*
01
12
03
06
07
0=
0>
0?
0@
0A
0B
0C
0D
0F
1H
0K
0L
1M
0R
1S
1U
1V
1W
1Y
1Z
1[
1\
1`
1a
0j
1k
0l
#2480000
0M
#2490000
1*
11
02
13
05
08
09
0:
0;
0<
1C
1D
1F
0G
0H
1M
0S
0T
0U
0V
0W
1X
0Y
0Z
0[
1]
1c
1h
1j
#2500000
0M
#2510000
1(
0)
0*
01
12
03
15
18
19
1:
1;
1<
0C
0D
0F
1G
1H
0J
1M
1U
1V
0\
0]
0c
1f
0h
0j
0k
1l
1m
#2520000
0M
#2530000
1*
11
02
13
05
08
09
0:
0;
0<
1C
1D
1F
0G
0H
1K
1M
0U
0X
1\
1]
0a
0f
0l
#2540000
0M
#2550000
1)
0*
01
15
17
0C
0D
0E
0F
1H
0I
1L
1M
1S
1T
1U
1W
1Y
0`
1a
#2560000
0M
#2570000
1*
11
16
18
19
1:
1;
1<
1=
1>
1?
1@
1A
1B
1C
1D
1E
1F
1G
0H
1I
0K
1M
0T
0]
1`
#2580000
0M
#2590000
1'
0(
0)
0*
01
12
03
06
07
0=
0>
0?
0@
0A
0B
0C
0D
0F
1J
0L
1M
0S
0W
0Y
1]
1c
#2600000
0M
#2610000
1*
11
02
13
05
08
09
0:
0;
0<
1C
1D
1F
0G
0I
1K
1M
0U
0V
1X
1j
1k
0m
#2620000
0M
#2630000
1)
0*
01
12
03
15
18
19
1:
1;
1<
0C
0D
0F
1G
1I
0J
0K
1M
1U
1V
0\
0]
1b
0c
0j
0k
1l
1m
#2640000
0M
#2650000
1*
11
02
13
05
08
09
0:
0;
0<
1C
1D
1F
0G
0I
1J
1M
1T
0U
0X
1Z
1[
1\
1^
1_
0a
0b
0l
#2660000
0M
#2670000
1(
0)
0*
01
12
03
15
18
19
1:
1;
1<
0C
0D
0F
1G
1M
0T
1U
1X
0Z
0[
0\
0`
1b
1h
1l
#2680000
0M
#2690000
1*
11
02
13
05
08
09
0:
0;
0<
1C
1D
1F
0G
0J
1K
1M
0V
1W
0X
1Y
1Z
1[
1\
0^
0_
0b
0h
0l
0m
#2700000
0M
#2710000
1)
0*
01
15
17
0C
0D
0E
0F
1H
1I
1J
0K
1L
1M
1S
1V
0W
1]
1a
1j
#2720000
0M
#2730000
1*
11
16
18
19
1:
1;
1<
1=
1>
1?
1@
1A
1B
1C
1D
1E
1F
1G
0H
0I
0J
1M
0O
1Q
1R
0S
1T
0U
1W
1X
1^
1_
1`
1b
1c
1d
1e
1f
1g
1h
1i
0j
1m
#2740000
0M
#2750000
01
12
03
06
07
0=
0>
0?
0@
0A
0B
0C
0D
0F
0G
1H
1I
0L
1M
1O
0Q
0R
0T
1U
0W
0Y
0Z
0[
0\
0]
0^
0_
0`
0a
0b
0c
0d
0e
0f
0g
0h
0i
1j
1k
0m
#2760000
0M
#2770000
11
02
13
05
08
09
0:
0;
0<
1C
1D
1G
1J
1K
1M
#2780000
0M
#2790000
01
12
03
15
18
19
1:
1;
1<
0C
0D
0G
0I
0K
1M
0N
0O
0P
0U
0V
0X
0j
0k
0n
#2800000
0M
#2810000
0!
1#
0$
0%
0&
0'
0(
0)
0*
0-
0.
0/
02
04
05
08
09
0:
0;
1D
0E
1M
1N
1O
1P
1U
1V
1X
1j
1k
1n
#2820000
0M
#2830000
1*
1M
1R
1T
0U
1W
1Y
1Z
1[
1\
1]
1^
1_
1`
1a
1b
1c
1d
1e
1f
1g
1h
0j
0k
1l
#2840000
0M
#2850000
1)
0*
1M
0R
1U
0V
0X
0Z
0[
0]
0^
0_
0`
0a
0b
0c
0d
0e
0f
1m
#2860000
0M
#2870000
1*
1M
0N
0O
0P
1Q
1R
0U
0W
0Y
0\
0g
0h
1i
0l
#2880000
0M
#2890000
1(
0)
0*
1M
1N
1O
1P
0Q
0R
1S
0T
1V
1Y
1[
1]
1^
1_
0i
1k
0m
#2900000
0M
#2910000
1*
1M
1U
1W
0Y
1Z
1j
1l
#2920000
0M
#2930000
1)
0*
1M
0S
1T
0W
1X
0Z
0[
0]
0j
0k
0l
#2940000
0M
#2950000
1*
1M
1S
0T
1W
0X
1Z
1[
1]
1j
1k
1l
1m
#2960000
0M
#2970000
1'
0(
0)
0*
1M
0S
0W
1X
0Z
0[
0]
0^
0_
1`
0m
#2980000
0M
#2990000
1*
1M
1a
0k
0l
#3000000
0M
#3010000
1)
0*
1M
0`
0a
0j
1k
1l
1m
#3020000
0M
#3030000
1*
1M
1T
0U
0X
1Z
1[
1]
1a
1j
0m
#3040000
0M
#3050000
1(
0)
0*
1M
1R
1U
1W
1X
1Y
1\
1^
1_
1`
1b
1c
1d
1e
1h
0j
0l
1m
#3060000
0M
#3070000
1*
1M
0U
1f
1g
0h
1i
1j
0k
1l
#3080000
0M
#3090000
1)
0*
1M
0R
1U
0V
0X
0Z
0[
0^
0_
0`
0a
0b
0c
0d
0e
0f
0g
0i
0m
#3100000
0M
#3110000
1*
1M
0N
0O
0P
0T
1V
0W
1X
0Y
0\
0]
0j
1k
1m
#3120000
0M
#3130000
1&
0'
0(
0)
0*
1M
1T
1a
1j
0l
#3140000
0M
#3150000
1*
1M
1R
1W
1Y
1Z
1[
1\
1]
1^
1_
1`
1b
1c
1d
1e
1i
0j
1l
#3160000
0M
#3170000
1)
0*
1M
1N
1O
1P
0R
0T
0W
0Y
0Z
0[
0\
0]
0^
0_
0`
0a
0b
0c
0d
0e
0i
#3180000
0M
#3190000
1*
1M
1S
1W
0X
1Y
1[
1a
0k
0l
0m
#3200000
0M
#3210000
1(
0)
0*
1M
1R
0S
1T
1X
1Z
1\
1]
1^
1_
1`
1b
1c
1d
1e
1i
1k
#3220000
0M
#3230000
1*
1M
0R
0U
0W
0X
0Y
0Z
0]
0^
0a
0b
0c
0d
0e
0i
0k
1m
#3240000
0M
#3250000
1)
0*
1M
0\
0`
#3260000
0M
#3270000
1*
1M
1S
0T
1U
1W
1Y
0_
1`
1a
0m
#3280000
0M
#3290000
1'
0(
0)
0*
1M
0S
1T
0V
0[
1\
1]
0`
0a
#3300000
0M
#3310000
1*
1M
0N
0O
0P
1Q
1R
0U
1V
1X
1Z
1[
1^
1_
1`
1a
1b
1c
1d
1e
1f
1i
1j
1k
1l
1m
#3320000
0M
#3330000
1)
0*
1M
1N
1O
1P
0Q
0R
0T
1U
0W
0Y
0Z
0[
0\
0]
0^
0_
0`
0a
0b
0c
0d
0e
0f
0i
0j
0m
#3340000
0M
#3350000
1*
1M
1T
0U
0X
1Z
1[
1]
1^
1_
1a
1i
0k
0l
#3360000
0M
#3370000
1(
0)
0*
1M
1R
0T
1X
1Y
0_
0a
1e
1f
1g
1h
#3380000
0M
#3390000
1*
1M
0N
0O
0P
0R
0V
0X
0Y
0Z
0[
0^
1`
0h
1k
#3400000
0M
#3410000
1)
0*
1M
1N
1O
1P
1R
1U
1X
1Z
1[
0`
0e
0f
0g
0i
1j
1l
1m
#3420000
0M
#3430000
1*
1M
0R
1S
1^
1_
1`
0j
0l
0m
#3440000
0M
#3450000
1M
0S
1T
0U
1W
0X
0`
1a
#3460000
0M
#3470000
1M
#3480000
0M
#3490000
1M
0N
0O
0P
0T
0W
0Z
0[
0]
0^
0_
0a
0k
0n
#3500000
0M
#3510000
1%
0&
0'
0(
0)
0*
1-
1.
10
11
12
13
15
17
19
1:
1=
1?
1@
1A
1B
1C
0D
1E
1F
1G
0H
1I
1K
1L
1M
1N
1O
1P
1T
1W
1Z
1[
1]
1^
1_
1a
1k
1n
#3520000
0M
#3530000
1*
1M
1V
0W
0^
0_
0a
#3540000
0M
#3550000
1)
0*
1M
1U
1X
0Z
0[
0]
1`
1a
0k
#3560000
0M
#3570000
1*
1M
1S
0T
0V
1k
#3580000
0M
#3590000
1(
0)
0*
1M
1V
0X
1Y
1Z
1[
1]
0`
1j
0k
#3600000
0M
#3610000
1*
1M
0S
1X
0Y
0Z
0[
0]
0a
1k
1m
#3620000
0M
#3630000
1)
0*
1M
1T
0U
0X
1Z
1[
1]
1`
0m
#3640000
0M
#3650000
1*
1M
1R
1U
1W
1X
1Y
1\
1^
1_
1a
1b
1c
1d
1e
1f
0k
1l
#3660000
0M
#3670000
1'
0(
0)
0*
1M
0R
0U
0W
0X
0Y
0\
0`
0b
0c
0d
0e
0f
0j
1k
0l
#3680000
0M
#3690000
1*
1M
1S
0T
1Y
1`
0a
#3700000
0M
#3710000
1)
0*
1M
0S
1T
0Y
0`
1a
1i
0k
#3720000
0M
#3730000
1*
1M
0T
1U
1X
0Z
0[
0]
1`
0i
1j
1k
1l
#3740000
0M
#3750000
1(
0)
0*
1M
1R
0V
1Z
1[
1]
0^
0_
0`
0a
#3760000
0M
#3770000
1*
1M
0R
1S
1^
1_
1`
0j
0l
#3780000
0M
#3790000
1)
0*
1M
0S
1T
0U
1W
0X
0`
1a
#3800000
0M
#3810000
1*
1M
1V
0W
0^
0_
1`
#3820000
0M
#3830000
1&
0'
0(
0)
0*
1M
1S
0T
1U
0V
1X
0Z
0[
1\
0`
0a
#3840000
0M
#3850000
1*
1M
1V
0X
1Y
1Z
1[
0\
1a
1j
0k
#3860000
0M
#3870000
1)
0*
1M
0S
1X
0Y
0Z
0[
0]
0a
1k
1m
#3880000
0M
#3890000
1*
1M
1T
0U
0X
1Z
1[
1]
1`
0m
#3900000
0M
#3910000
1(
0)
0*
1M
1R
1U
1W
1X
1Y
1\
1^
1_
1a
1b
1c
1d
1e
1g
1h
1i
1m
#3920000
0M
#3930000
1*
1M
0R
0U
0W
0X
0Y
0\
0`
0b
0c
0d
0e
0g
0h
0i
0j
0m
#3940000
0M
#3950000
1)
0*
1M
1S
0T
1Y
1`
0a
#3960000
0M
#3970000
1*
1M
0S
1T
0Y
0`
1a
1j
#3980000
0M
#3990000
1'
0(
0)
0*
1M
0T
1U
1X
0Z
0[
0]
1`
1l
#4000000
0M
#4010000
1*
1M
1S
0X
1Y
1Z
1[
1\
1]
0_
1c
1g
1h
0l
#4020000
0M
#4030000
1)
0*
1M
0Y
0[
0^
0`
0a
0c
0g
0h
0j
0k
#4040000
0M
#4050000
1*
1M
1R
0S
1T
0U
1W
1X
1Y
1[
1^
1_
1`
1a
1b
1c
1d
1e
1f
1g
1h
1i
1j
1k
#4060000
0M
#4070000
1(
0)
0*
1M
0R
1S
0T
1U
0W
0X
0_
0b
0d
0e
0f
0i
0j
0k
#4080000
0M
#4090000
1*
1M
0S
1T
1X
0Y
0Z
0[
0\
0]
0a
0c
0g
0h
1i
1m
#4100000
0M
#4110000
1)
0*
1M
1S
0T
0X
1Z
1\
1]
0i
0m
#4120000
0M
#4130000
1*
1M
1R
0S
1T
0U
1W
1X
1Y
1[
1_
1a
1b
1c
1d
1e
1f
1g
1h
1i
1j
1l
1m
#4140000
0M
#4150000
1M
0R
1S
0T
1U
0W
0X
0^
0_
0`
0b
0d
0e
0f
0h
0j
1k
0l
0m
#4160000
0M
#4170000
1M
#4180000
0M
#4190000
1M
0N
0O
0P
0S
0U
0V
0Y
0Z
0[
0\
0]
0a
0c
0g
0i
0k
0n
#4200000
0M
#4210000
0#
0&
0'
0(
0)
0*
0-
0.
00
01
02
03
05
07
09
0:
0=
0?
0@
0B
0C
0E
0F
0K
0L
1M
1N
1O
1P
1S
1U
1V
1Y
1Z
1[
1\
1]
1a
1c
1g
1i
1k
1n
#4220000
0M
#4230000
1*
1M
0S
1X
0Y
0Z
0[
0\
0]
0a
0c
0g
0i
1j
0k
1m
#4240000
0M
#4250000
1)
0*
1M
1T
1a
1h
1k
#4260000
0M
#4270000
1*
1M
1R
1W
1Y
1Z
1[
1\
1]
1^
1_
1`
1b
1c
1d
1e
1f
0h
0j
#4280000
0M
