sw/bootloader/storm_bootloader.vcd
$comment
Copyright (C) 1991-2013 Altera Corporation
Your use of Altera Corporation's design tools, logic functions 
and other software and tools, and its AMPP partner logic 
functions, and any output files from any of the foregoing 
(including device programming or simulation files), and any 
associated documentation or information are expressly subject 
to the terms and conditions of the Altera Program License 
Subscription Agreement, Altera MegaCore Function License 
Agreement, or other applicable license agreement, including, 
without limitation, that your use is for the sole purpose of 
programming logic devices manufactured by Altera and sold by 
Altera or its authorized distributors.  Please refer to the 
applicable agreement for further details.
$end

$date 
  09/16/2015 21:47:41 
$end
$version 
 QUARTUS_VCD_EXPORT 1.0 
$end
$timescale
  1 ps
$end
$scope module STORM_TOP_INST $end
$var reg 1 ! CORE_CLK_I $end
$var reg 32 " WB_ADR_O[31:0] $end
$var reg 32 # WB_DATA_O[31:0] $end
$var reg 1 $ WB_WE_O $end
$upscope $end
$var reg 1 % BOOT_ROM_STB_I $end
$var reg 1 & INT_MEM_STB_I $end
$var reg 1 ' SDRAM_MEM_STB_I $end
$var reg 32 ( CORE_WB_DATA_I[31:0] $end
$var reg 1 ) UART1_TXD_O $end
$var reg 1 * UART1_STB_I $end
$var reg 1 + UART0_STB_I $end
$enddefinitions $end
#0
$dumpvars
0!
bX "
bX #
X$
X%
X&
X'
bX (
X)
X*
X+
$end
#10000
$comment Sample -128 (Start) $end
1!
b0 "
b0 #
0$
0%
0&
0'
b0 (
1)
0*
0+
#20000
0!
#30000
1!
#40000
0!
#50000
1!
#60000
0!
#70000
1!
#80000
0!
#90000
1!
#100000
0!
#110000
1!
#120000
0!
#130000
1!
#140000
0!
#150000
1!
#160000
0!
#170000
1!
#180000
0!
#190000
1!
#200000
0!
#210000
1!
#220000
0!
#230000
1!
#240000
0!
#250000
1!
#260000
0!
#270000
1!
#280000
0!
#290000
1!
#300000
0!
#310000
1!
#320000
0!
#330000
1!
#340000
0!
#350000
1!
#360000
0!
#370000
1!
#380000
0!
#390000
1!
#400000
0!
#410000
1!
#420000
0!
#430000
1!
#440000
0!
#450000
1!
#460000
0!
#470000
1!
#480000
0!
#490000
1!
#500000
0!
#510000
1!
#520000
0!
#530000
1!
#540000
0!
#550000
1!
#560000
0!
#570000
1!
#580000
0!
#590000
1!
#600000
0!
#610000
1!
#620000
0!
#630000
1!
#640000
0!
#650000
1!
#660000
0!
#670000
1!
#680000
0!
#690000
1!
#700000
0!
#710000
1!
#720000
0!
#730000
1!
#740000
0!
#750000
1!
#760000
0!
#770000
1!
#780000
0!
#790000
1!
#800000
0!
#810000
1!
#820000
0!
#830000
1!
#840000
0!
#850000
1!
#860000
0!
#870000
1!
#880000
0!
#890000
1!
#900000
0!
#910000
1!
#920000
0!
#930000
1!
#940000
0!
#950000
1!
#960000
0!
#970000
1!
#980000
0!
#990000
1!
#1000000
0!
#1010000
1!
#1020000
0!
#1030000
1!
#1040000
0!
#1050000
1!
#1060000
0!
#1070000
1!
#1080000
0!
#1090000
1!
#1100000
0!
#1110000
1!
#1120000
0!
#1130000
1!
#1140000
0!
#1150000
1!
#1160000
0!
#1170000
1!
#1180000
0!
#1190000
1!
#1200000
0!
#1210000
1!
#1220000
0!
#1230000
1!
#1240000
0!
#1250000
1!
#1260000
0!
#1270000
1!
#1280000
0!
#1290000
1!
#1300000
0!
#1310000
1!
#1320000
0!
#1330000
1!
#1340000
0!
#1350000
1!
#1360000
0!
#1370000
1!
#1380000
0!
#1390000
1!
#1400000
0!
#1410000
1!
#1420000
0!
#1430000
1!
#1440000
0!
#1450000
1!
#1460000
0!
#1470000
1!
#1480000
0!
#1490000
1!
#1500000
0!
#1510000
1!
#1520000
0!
#1530000
1!
#1540000
0!
#1550000
1!
#1560000
0!
#1570000
1!
#1580000
0!
#1590000
1!
#1600000
0!
#1610000
1!
#1620000
0!
#1630000
1!
#1640000
0!
#1650000
1!
#1660000
0!
#1670000
1!
#1680000
0!
#1690000
1!
#1700000
0!
#1710000
1!
#1720000
0!
#1730000
1!
#1740000
0!
#1750000
1!
#1760000
0!
#1770000
1!
#1780000
0!
#1790000
1!
#1800000
0!
#1810000
1!
#1820000
0!
#1830000
1!
#1840000
0!
#1850000
1!
#1860000
0!
#1870000
1!
#1880000
0!
#1890000
1!
#1900000
0!
#1910000
1!
#1920000
0!
#1930000
1!
#1940000
0!
#1950000
1!
#1960000
0!
#1970000
1!
#1980000
0!
#1990000
1!
#2000000
0!
#2010000
1!
#2020000
0!
#2030000
1!
#2040000
0!
#2050000
1!
#2060000
0!
#2070000
1!
#2080000
0!
#2090000
1!
#2100000
0!
#2110000
1!
#2120000
0!
#2130000
1!
#2140000
0!
#2150000
1!
#2160000
0!
#2170000
1!
#2180000
0!
#2190000
1!
#2200000
0!
#2210000
1!
#2220000
0!
#2230000
1!
#2240000
0!
#2250000
1!
#2260000
0!
#2270000
1!
#2280000
0!
#2290000
1!
#2300000
0!
#2310000
1!
#2320000
0!
#2330000
1!
#2340000
0!
#2350000
1!
#2360000
0!
#2370000
1!
#2380000
0!
#2390000
1!
#2400000
0!
#2410000
1!
#2420000
0!
#2430000
1!
#2440000
0!
#2450000
1!
#2460000
0!
#2470000
1!
#2480000
0!
#2490000
1!
#2500000
0!
#2510000
1!
#2520000
0!
#2530000
1!
#2540000
0!
#2550000
1!
#2560000
0!
#2570000
$comment Sample 0 (Trigger) $end
1!
b10000000000000000 "
b1111100001000000010000000100000 #
1%
b11010111111111111111111111100 (
#2580000
0!
#2590000
1!
b10000000000000100 "
b11101010000000000000000000000110 (
#2600000
0!
#2610000
1!
b10000000000001000 "
b11101010111111111111111111111110 (
#2620000
0!
#2630000
1!
b10000000000001100 "
#2640000
0!
#2650000
1!
b10000000000010000 "
#2660000
0!
#2670000
1!
b10000000000010100 "
#2680000
0!
#2690000
1!
b10000000000011000 "
b11100001101000000000000000000000 (
#2700000
0!
#2710000
1!
b10000000000011100 "
b11101010111111111111111111111110 (
#2720000
0!
#2730000
1!
b10000000000100000 "
#2740000
0!
#2750000
1!
b10000000000100100 "
b11100101100111110000000000110100 (
#2760000
0!
#2770000
1!
b10000000000101000 "
b11100001000011110001000000000000 (
#2780000
0!
#2790000
1!
b10000000000101100 "
b11100011110000010001000001111111 (
#2800000
0!
#2810000
1!
b10000000000110000 "
b11100011100000010001000011011111 (
#2820000
0!
#2830000
1!
b10000000000110100 "
b11100001001010011111000000000001 (
#2840000
0!
#2850000
1!
b10000000000111000 "
b11100001101000001101000000000000 (
#2860000
0!
#2870000
1!
b10000000000111100 "
b11100011101000000000000000000000 (
#2880000
0!
#2890000
1!
b10000000001000000 "
b11100001101000000001000000000000 (
#2900000
0!
#2910000
1!
b10000000001000100 "
b11100001101000000010000000000000 (
#2920000
0!
#2930000
1!
b10000000001001000 "
b11100001101000001011000000000000 (
#2940000
0!
#2950000
1!
b10000000001001100 "
b11100001101000000111000000000000 (
#2960000
0!
#2970000
1!
b10000000001010000 "
b11100101100111111010000000001100 (
#2980000
0!
#2990000
1!
b10000000001010100 "
b11100001101000001110000000001111 (
#3000000
0!
#3010000
1!
b10000000001011000 "
b11100001101000001111000000001010 (
#3020000
0!
#3030000
1!
b10000000001011100 "
b11101010111111111111111111111110 (
#3040000
0!
#3050000
1!
b10000000001100000 "
b10000000000000 (
#3060000
0!
#3070000
1!
b10000000001100100 "
b10000011101111000 (
#3080000
0!
#3090000
1!
b10000000001101000 "
b11100011111000000011101000001111 (
#3100000
0!
#3110000
1!
b10000000001101100 "
b11100101000100110001111111111011 (
#3120000
0!
#3130000
1!
b10000000001110000 "
b11100010000000000010000011111111 (
#3140000
0!
#3150000
1!
b10000000001110100 "
b11100011101000000000000000000001 (
#3160000
0!
#3170000
1!
b10000000001111000 "
b11100000000000010000001000010000 (
#3180000
0!
#3190000
1!
b10000000001111100 "
b11100001101000001111000000001110 (
#3200000
0!
#3210000
1!
b11100011111000000011101000001111 (
#3220000
0!
#3230000
1!
#3240000
0!
#3250000
1!
0%
b0 (
#3260000
0!
#3270000
1!
#3280000
0!
#3290000
1!
b0 #
#3300000
0!
#3310000
1!
#3320000
0!
#3330000
1!
#3340000
0!
#3350000
1!
#3360000
0!
#3370000
1!
#3380000
0!
#3390000
1!
#3400000
0!
#3410000
1!
#3420000
0!
#3430000
1!
#3440000
0!
#3450000
1!
#3460000
0!
#3470000
1!
#3480000
0!
#3490000
1!
#3500000
0!
#3510000
1!
#3520000
0!
#3530000
1!
#3540000
0!
#3550000
1!
b10000000000000000 "
b1111100001000000010000000100000 #
1%
b11100011111000000011101000001111 (
#3560000
0!
#3570000
1!
b10000000000000100 "
b11101010000000000000000000000110 (
#3580000
0!
#3590000
1!
b10000000000001000 "
b11101010111111111111111111111110 (
#3600000
0!
#3610000
1!
b10000000000001100 "
#3620000
0!
#3630000
1!
b10000000000010000 "
#3640000
0!
#3650000
1!
b10000000000010100 "
b100000001000000010000000100000 #
#3660000
0!
#3670000
1!
b10000000000011000 "
b11100001101000000000000000000000 (
#3680000
0!
#3690000
1!
b10000000000011100 "
b11101010111111111111111111111110 (
#3700000
0!
#3710000
1!
b10000000000100000 "
b1000011011011110110111001110100 #
#3720000
0!
#3730000
1!
b10000000000100100 "
b1100001011000110111010000111010 #
b11100101100111110000000000110100 (
#3740000
0!
#3750000
1!
b10000000000101000 "
b100000011100110111010001101110 #
b11100001000011110001000000000000 (
#3760000
0!
#3770000
1!
b10000000000101100 "
b1101111011011000111010001101001 #
b11100011110000010001000001111111 (
#3780000
0!
#3790000
1!
b10000000000110000 "
b1101110011001110100000001100111 #
b11100011100000010001000011011111 (
#3800000
0!
#3810000
1!
b10000000000110100 "
b1101111011011110110011101101100 #
b11100001001010011111000000000001 (
#3820000
0!
#3830000
1!
b10000000000111000 "
b1100101011011010110000101101001 #
b11100001101000001101000000000000 (
#3840000
0!
#3850000
1!
b10000000000111100 "
b1101100001011100110001101101111 #
b11100011101000000000000000000000 (
#3860000
0!
#3870000
1!
b10000000001000000 "
b1101101001000000010000000100000 #
b11100001101000000001000000000000 (
#3880000
0!
#3890000
1!
b10000000001000100 "
b100000001000000010000000100000 #
b11100001101000000010000000000000 (
#3900000
0!
#3910000
1!
b10000000001001000 "
b11100001101000001011000000000000 (
#3920000
0!
#3930000
1!
b10000000001001100 "
b11100001101000000111000000000000 (
#3940000
0!
#3950000
1!
b10000000001010000 "
b100000011111000000110100001010 #
b11100101100111111010000000001100 (
#3960000
0!
#3970000
1!
b10000000001010100 "
b0 #
b11100001101000001110000000001111 (
#3980000
0!
#3990000
1!
b10000000001011000 "
b101011001011010010110100101101 #
b11100001101000001111000000001010 (
#4000000
0!
#4010000
1!
b10000000001011100 "
b101101001011010010110100101101 #
b11101010111111111111111111111110 (
#4020000
0!
#4030000
1!
b10000000001100000 "
b10000000000000 (
#4040000
0!
#4050000
1!
b10000000001100100 "
b10000011101111000 (
#4060000
0!
#4070000
1!
b10000000001101000 "
b11100011111000000011101000001111 (
#4080000
0!
#4090000
1!
b10000000001101100 "
b11100101000100110001111111111011 (
#4100000
0!
#4110000
1!
b10000000001110000 "
b11100010000000000010000011111111 (
#4120000
0!
#4130000
1!
b10000000001110100 "
b11100011101000000000000000000001 (
#4140000
0!
#4150000
1!
b10000000001111000 "
b11100000000000010000001000010000 (
#4160000
0!
#4170000
1!
b10000000001111100 "
b11100001101000001111000000001110 (
#4180000
0!
#4190000
1!
b11100011111000000011101000001111 (
#4200000
0!
#4210000
1!
#4220000
0!
#4230000
1!
0%
b0 (
#4240000
0!
#4250000
1!
#4260000
0!
#4270000
1!
b0 #
