sw/amber-btldr/capture1.vcd
$comment
Copyright (C) 1991-2013 Altera Corporation
Your use of Altera Corporation's design tools, logic functions 
and other software and tools, and its AMPP partner logic 
functions, and any output files from any of the foregoing 
(including device programming or simulation files), and any 
associated documentation or information are expressly subject 
to the terms and conditions of the Altera Program License 
Subscription Agreement, Altera MegaCore Function License 
Agreement, or other applicable license agreement, including, 
without limitation, that your use is for the sole purpose of 
programming logic devices manufactured by Altera and sold by 
Altera or its authorized distributors.  Please refer to the 
applicable agreement for further details.
$end

$date 
  09/20/2015 23:36:22 
$end
$version 
 QUARTUS_VCD_EXPORT 1.0 
$end
$timescale
  1 ps
$end
$scope module STORM_TOP_INST $end
$var reg 1 ! CORE_CLK_I $end
$var reg 32 " WB_ADR_O[31:0] $end
$var reg 8 # WB_DATA_O[7:0] $end
$var reg 1 $ WB_WE_O $end
$var reg 4 % WB_SEL_O[3:0] $end
$upscope $end
$var reg 1 & BOOT_ROM_STB_I $end
$var reg 1 ' INT_MEM_STB_I $end
$var reg 1 ( SDRAM_MEM_STB_I $end
$var reg 1 ) UART1_STB_I $end
$var reg 8 * CORE_WB_DATA_I[7:0] $end
$enddefinitions $end
#0
$dumpvars
0!
bX "
bX #
X$
bX %
X&
X'
X(
X)
bX *
$end
#10000
$comment Sample -128 (Start) $end
1!
b10001100001111100 "
b0 #
0$
b1111 %
0&
0'
0(
0)
b0 *
#20000
0!
#30000
1!
#40000
0!
#50000
1!
#60000
0!
#70000
1!
#80000
0!
#90000
1!
#100000
0!
#110000
1!
#120000
0!
#130000
1!
#140000
0!
#150000
1!
#160000
0!
#170000
1!
#180000
0!
#190000
1!
#200000
0!
#210000
1!
#220000
0!
#230000
1!
#240000
0!
#250000
1!
#260000
0!
#270000
1!
#280000
0!
#290000
1!
#300000
0!
#310000
1!
#320000
0!
#330000
1!
#340000
0!
#350000
1!
#360000
0!
#370000
1!
#380000
0!
#390000
1!
#400000
0!
#410000
1!
#420000
0!
#430000
1!
#440000
0!
#450000
1!
#460000
0!
#470000
1!
#480000
0!
#490000
1!
#500000
0!
#510000
1!
#520000
0!
#530000
1!
b10001100010000000 "
b10001011 #
1&
b100000 *
#540000
0!
#550000
1!
b10001100010000100 "
b10 *
#560000
0!
#570000
1!
b10001100010001000 "
b100100 *
#580000
0!
#590000
1!
b10001100010001100 "
b100000 *
#600000
0!
#610000
1!
b10001100010010000 "
b11100 *
#620000
0!
#630000
1!
b10001100010010100 "
b1 *
#640000
0!
#650000
1!
b10001100010011000 "
b100010 *
#660000
0!
#670000
1!
b10001100010011100 "
b11100 *
#680000
0!
#690000
1!
b10001100010100000 "
b11000 *
#700000
0!
#710000
1!
b10001100010100100 "
b10 *
#720000
0!
#730000
1!
b10001100010101000 "
b100001 *
#740000
0!
#750000
1!
b10001100010101100 "
b11000 *
#760000
0!
#770000
1!
b10001100010110000 "
b10100 *
#780000
0!
#790000
1!
b10001100010110100 "
b1 *
#800000
0!
#810000
1!
b10001100010111000 "
b100010 *
#820000
0!
#830000
1!
b10001100010111100 "
b10100 *
#840000
0!
#850000
1!
b10001100011000000 "
b10000 *
#860000
0!
#870000
1!
b10001100011000100 "
b10 *
#880000
0!
#890000
1!
b10001100011001000 "
b100001 *
#900000
0!
#910000
1!
b10001100011001100 "
b10000 *
#920000
0!
#930000
1!
b10001100011010000 "
b1100 *
#940000
0!
#950000
1!
b10001100011010100 "
b1 *
#960000
0!
#970000
1!
b10001100011011000 "
b100010 *
#980000
0!
#990000
1!
b10001100011011100 "
b1100 *
#1000000
0!
#1010000
1!
b10001100011100000 "
b1000 *
#1020000
0!
#1030000
1!
b10001100011100100 "
b10 *
#1040000
0!
#1050000
1!
b10001100011101000 "
b100001 *
#1060000
0!
#1070000
1!
b10001100011101100 "
b1000 *
#1080000
0!
#1090000
1!
b10001100011110000 "
b100 *
#1100000
0!
#1110000
1!
b10001100011110100 "
#1120000
0!
#1130000
1!
b10001100011111000 "
b100010 *
#1140000
0!
#1150000
1!
b10001100011111100 "
b100 *
#1160000
0!
#1170000
1!
b1 *
#1180000
0!
#1190000
1!
#1200000
0!
#1210000
1!
0&
b0 *
#1220000
0!
#1230000
1!
#1240000
0!
#1250000
1!
b0 #
#1260000
0!
#1270000
1!
#1280000
0!
#1290000
1!
#1300000
0!
#1310000
1!
#1320000
0!
#1330000
1!
#1340000
0!
#1350000
1!
#1360000
0!
#1370000
1!
b10001100100000000 "
b10001011 #
1&
b1 *
#1380000
0!
#1390000
1!
b10001100100000100 "
#1400000
0!
#1410000
1!
b10001100100001000 "
b100000 *
#1420000
0!
#1430000
1!
b10001100100001100 "
#1440000
0!
#1450000
1!
b10001100100010000 "
b11011010 *
#1460000
0!
#1470000
1!
b10001100100010100 "
b10000000 *
#1480000
0!
#1490000
1!
b10001100100011000 "
b11 *
#1500000
0!
#1510000
1!
b10001100100011100 "
#1520000
0!
#1530000
1!
b10001100100100000 "
b1 *
#1540000
0!
#1550000
1!
b10001100100100100 "
b11 *
#1560000
0!
#1570000
1!
b10001100100101000 "
#1580000
0!
#1590000
1!
b10001100100101100 "
b10000110 *
#1600000
0!
#1610000
1!
b10001100100110000 "
b11 *
#1620000
0!
#1630000
1!
b10001100100110100 "
b0 *
#1640000
0!
#1650000
1!
b10001100100111000 "
b11 *
#1660000
0!
#1670000
1!
b10001100100111100 "
b100110 *
#1680000
0!
#1690000
1!
b10001100101000000 "
b1 *
#1700000
0!
#1710000
1!
b10001100101000100 "
b11 *
#1720000
0!
#1730000
1!
b10001100101001000 "
#1740000
0!
#1750000
1!
b10001100101001100 "
b100 *
#1760000
0!
#1770000
1!
b10001100101010000 "
#1780000
0!
#1790000
1!
b10001100101010100 "
b1 *
#1800000
0!
#1810000
1!
b10001100101011000 "
b100 *
#1820000
0!
#1830000
1!
b10001100101011100 "
b111 *
#1840000
0!
#1850000
1!
b10001100101100000 "
b0 *
#1860000
0!
#1870000
1!
b10001100101100100 "
b100100 *
#1880000
0!
#1890000
1!
b10001100101101000 "
b10 *
#1900000
0!
#1910000
1!
b10001100101101100 "
b11110101 *
#1920000
0!
#1930000
1!
b10001100101110000 "
b0 *
#1940000
0!
#1950000
1!
b10001100101110100 "
b10 *
#1960000
0!
#1970000
1!
b10001100101111000 "
b10101100 *
#1980000
0!
#1990000
1!
b10001100101111100 "
b100 *
#2000000
0!
#2010000
1!
b1000 *
#2020000
0!
#2030000
1!
#2040000
0!
#2050000
1!
0&
b0 *
#2060000
0!
#2070000
1!
#2080000
0!
#2090000
1!
b0 #
